(move 1 7 6)
(move 1 8 5)
(move 3 7 4)
(move 5 9 6)
(move 3 7 9)
(move 2 5 7)
(move 10 6 8)
(move 2 2 3)
(move 2 9 1)
(move 6 8 2)
(move 5 3 8)
(move 4 5 9)
(move 3 4 5)
(move 2 1 8)
(move 3 1 7)
(move 1 7 1)
(move 4 7 8)
(move 1 5 6)
(move 1 9 3)
(move 8 2 4)
(move 1 5 8)
(move 1 5 3)
(move 2 1 8)
(move 4 3 4)
(move 1 3 4)
(move 1 1 7)
(move 1 7 8)
(move 1 7 4)
(move 5 9 1)
(move 2 6 7)
(move 3 2 1)
(move 12 8 7)
(move 8 7 3)
(move 1 2 8)
(move 6 7 1)
(move 1 6 3)
(move 8 4 3)
(move 5 3 6)
(move 6 1 8)
(move 2 1 2)
(move 2 3 1)
(move 4 4 5)
(move 1 5 7)
(move 1 6 9)
(move 1 4 9)
(move 8 1 4)
(move 10 3 5)
(move 2 4 5)
(move 2 2 6)
(move 2 1 6)
(move 11 4 7)
(move 9 6 5)
(move 16 8 3)
(move 15 5 6)
(move 10 3 6)
(move 24 6 5)
(move 5 7 5)
(move 1 6 3)
(move 1 7 2)
(move 2 7 6)
(move 3 3 6)
(move 8 5 1)
(move 3 9 8)
(move 3 8 4)
(move 1 7 1)
(move 1 2 9)
(move 1 9 2)
(move 2 3 1)
(move 2 4 2)
(move 5 6 8)
(move 3 7 1)
(move 1 4 2)
(move 26 5 9)
(move 1 3 6)
(move 7 1 9)
(move 1 3 5)
(move 1 6 5)
(move 1 5 4)
(move 5 5 6)
(move 1 4 9)
(move 3 9 3)
(move 4 8 5)
(move 2 5 2)
(move 1 1 6)
(move 1 8 9)
(move 2 2 4)
(move 2 3 7)
(move 1 7 6)
(move 7 6 7)
(move 1 4 3)
(move 2 2 4)
(move 28 9 3)
(move 26 3 7)
(move 2 4 3)
(move 2 9 1)
(move 4 3 6)
(move 1 4 5)
(move 1 3 4)
(move 3 1 9)
(move 1 4 7)
(move 1 5 7)
(move 1 6 9)
(move 23 7 1)
(move 4 9 5)
(move 3 9 4)
(move 2 6 3)
(move 1 6 7)
(move 3 3 9)
(move 11 7 2)
(move 4 2 3)
(move 23 1 2)
(move 15 2 4)
(move 2 7 9)
(move 13 2 8)
(move 1 7 5)
(move 1 2 8)
(move 7 4 8)
(move 6 4 3)
(move 1 2 4)
(move 1 2 9)
(move 20 8 5)
(move 1 8 4)
(move 3 4 7)
(move 3 3 9)
(move 1 2 8)
(move 20 5 3)
(move 6 5 3)
(move 26 3 9)
(move 2 7 5)
(move 1 5 4)
(move 1 7 8)
(move 2 8 5)
(move 12 9 4)
(move 2 3 2)
(move 4 1 9)
(move 2 3 1)
(move 4 5 6)
(move 5 9 4)
(move 2 6 3)
(move 2 6 8)
(move 2 8 3)
(move 1 2 7)
(move 21 4 2)
(move 1 4 5)
(move 13 2 4)
(move 4 3 9)
(move 25 9 7)
(move 7 2 4)
(move 18 7 8)
(move 2 1 5)
(move 1 3 9)
(move 2 9 3)
(move 1 1 6)
(move 8 7 6)
(move 4 3 2)
(move 1 4 7)
(move 6 2 5)
(move 1 7 3)
(move 5 6 8)
(move 4 4 1)
(move 9 5 1)
(move 12 4 3)
(move 1 6 5)
(move 1 5 2)
(move 13 3 8)
(move 14 8 6)
(move 2 1 6)
(move 1 2 5)
(move 11 1 3)
(move 1 5 3)
(move 6 6 8)
(move 23 8 5)
(move 1 8 1)
(move 18 5 8)
(move 5 6 8)
(move 10 3 8)
(move 1 1 5)
(move 2 4 8)
(move 1 4 7)
(move 5 5 3)
(move 1 6 1)
(move 6 3 9)
(move 35 8 4)
(move 1 7 6)
(move 2 9 8)
(move 1 1 6)
(move 17 4 7)
(move 1 5 1)
(move 4 9 6)
(move 12 6 4)
(move 29 4 2)
(move 17 7 8)
(move 27 2 7)
(move 2 2 1)
(move 1 3 1)
(move 25 7 4)
(move 25 4 6)
(move 1 4 2)
(move 4 1 6)
(move 1 2 6)
(move 25 6 1)
(move 5 6 8)
(move 15 1 6)
(move 2 7 8)
(move 15 6 2)
(move 14 2 8)
(move 1 2 3)
(move 4 1 4)
(move 4 4 2)
(move 6 1 8)
(move 3 2 5)
(move 3 5 7)
(move 1 2 3)
(move 1 6 8)
(move 8 8 5)
(move 2 7 4)
(move 1 7 9)
(move 3 5 8)
(move 2 4 6)
(move 3 5 8)
(move 2 3 4)
(move 2 6 5)
(move 1 9 8)
(move 48 8 5)
(move 1 8 9)
(move 41 5 4)
(move 4 5 2)
(move 3 2 7)
(move 1 2 7)
(move 1 8 1)
(move 1 9 4)
(move 1 1 3)
(move 7 4 7)
(move 11 7 4)
(move 4 4 1)
(move 37 4 9)
(move 4 4 3)
(move 32 9 3)
(move 5 9 1)
(move 12 3 2)
(move 3 4 1)
(move 3 1 6)
(move 3 1 6)
(move 2 1 5)
(move 9 2 7)
(move 3 7 3)
(move 6 6 5)
(move 4 3 6)
(move 3 6 9)
(move 13 3 8)
(move 3 1 9)
(move 2 3 2)
(move 2 7 8)
(move 1 6 8)
(move 4 2 8)
(move 2 8 3)
(move 1 2 1)
(move 4 7 3)
(move 6 3 5)
(move 3 9 8)
(move 13 8 6)
(move 1 9 2)
(move 2 3 8)
(move 1 1 9)
(move 1 1 3)
(move 10 6 3)
(move 1 2 5)
(move 22 5 7)
(move 1 9 3)
(move 1 8 7)
(move 2 7 8)
(move 6 8 4)
(move 2 9 2)
(move 21 7 6)
(move 4 8 5)
(move 1 8 4)
(move 1 5 7)
(move 12 3 6)
(move 1 2 6)
(move 1 7 9)
(move 1 2 6)
(move 6 3 5)
(move 6 4 2)
(move 1 3 6)
(move 1 9 7)
(move 6 2 7)
(move 22 6 4)
(move 3 6 5)
(move 7 5 7)
(move 3 7 8)
(move 2 5 3)
(move 2 3 7)
(move 13 6 8)
(move 3 7 1)
(move 3 5 9)
(move 16 4 5)
(move 1 5 8)
(move 2 1 6)
(move 1 1 7)
(move 6 4 2)
(move 4 8 7)
(move 13 5 7)
(move 1 6 3)
(move 2 5 6)
(move 10 7 6)
(move 1 3 9)
(move 1 4 3)
(move 1 3 5)
(move 12 7 3)
(move 2 2 1)
(move 1 5 9)
(move 2 9 6)
(move 4 2 7)
(move 7 7 9)
(move 1 7 8)
(move 1 1 9)
(move 11 9 7)
(move 4 8 3)
(move 5 3 5)
(move 2 8 4)
(move 3 5 2)
(move 2 2 8)
(move 1 5 2)
(move 5 8 2)
(move 7 7 2)
(move 4 8 9)
(move 2 7 6)
(move 4 9 7)
(move 6 2 4)
(move 1 5 6)
(move 5 3 5)
(move 1 8 1)
(move 10 6 3)
(move 8 2 8)
(move 1 8 1)
(move 5 3 2)
(move 2 8 7)
(move 6 7 4)
(move 12 4 1)
(move 4 1 2)
(move 1 2 1)
(move 8 2 9)
(move 2 4 8)
(move 5 9 7)
(move 8 3 8)
(move 2 3 1)
(move 6 8 2)
(move 7 7 2)
(move 1 3 5)
(move 2 7 2)
(move 1 9 1)
(move 1 9 7)
(move 1 9 4)
(move 1 6 7)
(move 1 2 3)
(move 1 3 8)
(move 1 4 9)
(move 5 6 1)
(move 7 8 2)
(move 1 7 4)
(move 9 2 8)
(move 7 2 7)
(move 1 4 2)
(move 8 7 5)
(move 4 8 7)
(move 8 8 6)
(move 9 1 4)
(move 1 9 1)
(move 4 7 6)
(move 7 1 7)
(move 6 7 3)
(move 4 1 8)
(move 13 6 3)
(move 6 2 3)
(move 1 3 4)
(move 2 3 7)
(move 1 6 9)
(move 11 5 1)
(move 1 6 3)
(move 8 4 1)
(move 2 5 2)
(move 1 9 5)
(move 2 8 7)
(move 7 1 5)
(move 2 7 3)
(move 8 5 4)
(move 1 8 2)
(move 1 5 7)
(move 3 7 2)
(move 4 4 7)
(move 4 3 4)
(move 20 3 2)
(move 1 8 3)
(move 1 3 8)
(move 4 7 2)
(move 1 8 6)
(move 1 7 5)
(move 1 3 1)
(move 1 4 2)
(move 5 1 4)
(move 14 4 1)
(move 1 6 5)
(move 1 2 3)
(move 1 5 1)
(move 11 2 9)
(move 18 1 2)
(move 4 1 3)
(move 12 2 5)
(move 5 2 4)
(move 7 5 1)
(move 1 2 9)
(move 9 1 9)
(move 1 3 6)
(move 2 3 9)
(move 1 6 1)
(move 1 4 8)
(move 1 3 4)
(move 1 3 8)
(move 16 9 5)
(move 2 2 7)
(move 14 5 8)
(move 16 8 5)
(move 1 7 9)
(move 1 7 6)
(move 4 9 5)
(move 11 5 6)
(move 12 2 4)
(move 16 5 7)
(move 4 7 2)
(move 1 5 6)
(move 3 9 1)
(move 4 7 9)
(move 3 6 4)
(move 9 2 9)
(move 3 1 8)
(move 2 8 1)
(move 1 8 2)
(move 5 6 1)
(move 7 7 1)
(move 1 7 6)
(move 8 4 5)
(move 1 2 6)
(move 12 9 2)
(move 3 2 9)
(move 8 5 8)
(move 12 4 5)
(move 1 2 9)
(move 1 5 6)
(move 2 1 7)
(move 4 5 2)
(move 6 5 1)
(move 2 7 6)
(move 1 5 1)
(move 1 8 5)
(move 7 6 9)
(move 2 9 4)
(move 16 1 8)
(move 1 5 8)
(move 7 2 8)
(move 3 6 2)
(move 1 4 8)
(move 28 8 3)
(move 1 4 2)
(move 4 1 2)
(move 11 2 7)
(move 9 7 8)
(move 7 9 5)
(move 4 8 1)
(move 2 9 1)
(move 2 1 5)
(move 1 7 9)
(move 1 1 9)
(move 6 5 3)
(move 3 5 1)
(move 2 2 8)
(move 7 8 3)
(move 7 3 7)
(move 4 1 9)
(move 1 8 9)
(move 2 8 1)
(move 1 8 1)
(move 6 7 6)
(move 6 6 5)
(move 17 3 6)
(move 2 9 2)
(move 2 1 4)
(move 12 3 8)
(move 6 6 5)
(move 2 2 1)
(move 4 9 7)
(move 2 7 3)
(move 1 1 5)
(move 10 8 6)
(move 2 3 9)
(move 9 5 2)
(move 7 2 8)
(move 1 4 8)
(move 1 4 6)
(move 7 8 7)
(move 3 9 7)
(move 4 3 4)
